<?xml version="1.0" encoding="UTF-8" standalone="no"?>
<svg
   xmlns:dc="http://purl.org/dc/elements/1.1/"
   xmlns:cc="http://creativecommons.org/ns#"
   xmlns:rdf="http://www.w3.org/1999/02/22-rdf-syntax-ns#"
   xmlns:svg="http://www.w3.org/2000/svg"
   xmlns="http://www.w3.org/2000/svg"
   viewBox="0 0 16 16"
   version="1.1"
   id="svg4774"
   height="16"
   width="16">
  <defs
     id="defs4776" />
  <metadata
     id="metadata4779">
    <rdf:RDF>
      <cc:Work
         rdf:about="">
        <dc:format>image/svg+xml</dc:format>
        <dc:type
           rdf:resource="http://purl.org/dc/dcmitype/StillImage" />
        <dc:title></dc:title>
      </cc:Work>
    </rdf:RDF>
  </metadata>
  <g
     id="layer1">
    <g
       transform="translate(-0.19650984,0.41758341)"
       id="g5354">
      <g
         transform="matrix(0.24866153,0,0,-0.24866153,7.0146378,12.990404)"
         id="g176"
         style="fill:#b41a1f;fill-opacity:1">
        <path
           id="path178"
           style="fill:#b41a1f;fill-opacity:1;fill-rule:nonzero;stroke:none"
           d="M 0,0 C 15.239,2.282 25.743,16.485 23.462,31.724 22.106,40.777 16.543,48.159 9.055,52.182 21.434,49.736 31.522,39.764 33.497,26.569 36.011,9.779 24.438,-5.87 7.648,-8.384 -5.981,-10.424 -18.858,-3.183 -24.568,8.596 -18.511,2.091 -9.455,-1.416 0,0" />
      </g>
      <g
         transform="matrix(0.24866153,0,0,-0.24866153,5.8736058,9.436807)"
         id="g180"
         style="fill:#b41a1f;fill-opacity:1">
        <path
           id="path182"
           style="fill:#b41a1f;fill-opacity:1;fill-rule:nonzero;stroke:none"
           d="M 0,0 C 7.431,1.173 12.553,8.474 11.44,16.308 10.779,20.962 8.067,24.757 4.415,26.825 10.451,25.568 15.37,20.441 16.333,13.658 17.559,5.027 11.916,-3.018 3.729,-4.31 -2.916,-5.359 -9.195,-1.636 -11.98,4.419 -9.026,1.075 -4.61,-0.728 0,0" />
      </g>
      <g
         transform="matrix(0.24866153,0,0,-0.24866153,3.8313481,5.543191)"
         id="g184"
         style="fill:#b41a1f;fill-opacity:1">
        <path
           id="path186"
           style="fill:#b41a1f;fill-opacity:1;fill-rule:nonzero;stroke:none"
           d="M 0,0 C 0,-2.313 1.875,-4.188 4.188,-4.188 6.5,-4.188 8.375,-2.313 8.375,0 8.375,2.313 6.5,4.188 4.188,4.188 1.875,4.188 0,2.313 0,0" />
      </g>
    </g>
  </g>
</svg>
